%YAML 1.1
%TAG !u! tag:unity3d.com,2011:
--- !u!1045 &1
EditorBuildSettings:
  m_ObjectHideFlags: 0
  serializedVersion: 2
  m_Scenes:
  - enabled: 1
    path: Assets/Scenes/Over.unity
    guid: ac41ffdf4d8df3e409c21ca7683f06d8
  - enabled: 1
    path: Assets/Scenes/Over LG.unity
    guid: 9fc0d4010bbf28b4594072e72b8655ab
  - enabled: 1
    path: Assets/Scenes/Down up down.unity
    guid: 2cedd6959c7277b42a1a77bcef94b6fa
  - enabled: 1
    path: Assets/Scenes/Around.unity
    guid: 7a604e2adb051aa4f9b0f6165fcbcaf6
  - enabled: 1
    path: Assets/Scenes/Death Spin.unity
    guid: c2c8510c51025bc4eb96738c379cedcb
  - enabled: 1
    path: Assets/Scenes/Pinhole tunnel camera follow.unity
    guid: ba4ed07da2a83a34d927191275842ad6
  m_configObjects: {}
