%YAML 1.1
%TAG !u! tag:unity3d.com,2011:
--- !u!1001 &7935443597153042615
PrefabInstance:
  m_ObjectHideFlags: 0
  serializedVersion: 2
  m_Modification:
    serializedVersion: 3
    m_TransformParent: {fileID: 0}
    m_Modifications:
    - target: {fileID: 826856087881988433, guid: e22fc59792b06b248b314b5a2f4be6eb, type: 3}
      propertyPath: m_Materials.Array.data[0]
      value: 
      objectReference: {fileID: 2100000, guid: 9403de46952402c42aacbe4afbcdee57, type: 2}
    - target: {fileID: 3287568321092038064, guid: e22fc59792b06b248b314b5a2f4be6eb, type: 3}
      propertyPath: m_Name
      value: Obstacle Variant
      objectReference: {fileID: 0}
    - target: {fileID: 3287568321092038064, guid: e22fc59792b06b248b314b5a2f4be6eb, type: 3}
      propertyPath: m_IsActive
      value: 1
      objectReference: {fileID: 0}
    - target: {fileID: 7258295265739936367, guid: e22fc59792b06b248b314b5a2f4be6eb, type: 3}
      propertyPath: m_LocalScale.x
      value: 10
      objectReference: {fileID: 0}
    - target: {fileID: 7258295265739936367, guid: e22fc59792b06b248b314b5a2f4be6eb, type: 3}
      propertyPath: m_LocalScale.y
      value: 5
      objectReference: {fileID: 0}
    - target: {fileID: 7258295265739936367, guid: e22fc59792b06b248b314b5a2f4be6eb, type: 3}
      propertyPath: m_LocalPosition.x
      value: 0
      objectReference: {fileID: 0}
    - target: {fileID: 7258295265739936367, guid: e22fc59792b06b248b314b5a2f4be6eb, type: 3}
      propertyPath: m_LocalPosition.y
      value: 10
      objectReference: {fileID: 0}
    - target: {fileID: 7258295265739936367, guid: e22fc59792b06b248b314b5a2f4be6eb, type: 3}
      propertyPath: m_LocalPosition.z
      value: 0
      objectReference: {fileID: 0}
    - target: {fileID: 7258295265739936367, guid: e22fc59792b06b248b314b5a2f4be6eb, type: 3}
      propertyPath: m_LocalRotation.w
      value: 1
      objectReference: {fileID: 0}
    - target: {fileID: 7258295265739936367, guid: e22fc59792b06b248b314b5a2f4be6eb, type: 3}
      propertyPath: m_LocalRotation.x
      value: 0
      objectReference: {fileID: 0}
    - target: {fileID: 7258295265739936367, guid: e22fc59792b06b248b314b5a2f4be6eb, type: 3}
      propertyPath: m_LocalRotation.y
      value: 0
      objectReference: {fileID: 0}
    - target: {fileID: 7258295265739936367, guid: e22fc59792b06b248b314b5a2f4be6eb, type: 3}
      propertyPath: m_LocalRotation.z
      value: 0
      objectReference: {fileID: 0}
    - target: {fileID: 7258295265739936367, guid: e22fc59792b06b248b314b5a2f4be6eb, type: 3}
      propertyPath: m_LocalEulerAnglesHint.x
      value: 0
      objectReference: {fileID: 0}
    - target: {fileID: 7258295265739936367, guid: e22fc59792b06b248b314b5a2f4be6eb, type: 3}
      propertyPath: m_LocalEulerAnglesHint.y
      value: 0
      objectReference: {fileID: 0}
    - target: {fileID: 7258295265739936367, guid: e22fc59792b06b248b314b5a2f4be6eb, type: 3}
      propertyPath: m_LocalEulerAnglesHint.z
      value: 0
      objectReference: {fileID: 0}
    m_RemovedComponents: []
    m_RemovedGameObjects: []
    m_AddedGameObjects: []
    m_AddedComponents: []
  m_SourcePrefab: {fileID: 100100000, guid: e22fc59792b06b248b314b5a2f4be6eb, type: 3}
